Date,No_Of_Claims
01/01/2017,3
01/02/2017,21
01/03/2017,49
01/04/2017,60
01/05/2017,52
01/06/2017,54
01/07/2017,68
01/08/2017,18
01/09/2017,61
01/10/2017,62
01/11/2017,67
01/12/2017,50
1/13/2017,68
1/14/2017,65
1/15/2017,13
1/16/2017,47
1/17/2017,64
1/18/2017,62
1/19/2017,53
1/20/2017,62
1/21/2017,44
1/22/2017,15
1/23/2017,65
1/24/2017,87
1/25/2017,63
1/26/2017,66
1/27/2017,61
1/28/2017,36
1/29/2017,16
1/30/2017,52
1/31/2017,57
02/01/2017,59
02/02/2017,53
02/03/2017,61
02/04/2017,58
02/05/2017,22
02/06/2017,58
02/07/2017,70
02/08/2017,77
02/09/2017,54
02/10/2017,51
02/11/2017,40
02/12/2017,17
2/13/2017,61
2/14/2017,60
2/15/2017,55
2/16/2017,53
2/17/2017,52
2/18/2017,69
2/19/2017,18
2/20/2017,62
2/21/2017,60
2/22/2017,72
2/23/2017,61
2/24/2017,65
2/25/2017,49
2/26/2017,9
2/27/2017,64
2/28/2017,57
03/01/2017,49
03/02/2017,55
03/03/2017,53
03/04/2017,62
03/05/2017,20
03/06/2017,54
03/07/2017,69
03/08/2017,66
03/09/2017,46
03/10/2017,42
03/11/2017,54
03/12/2017,15
3/13/2017,60
3/14/2017,83
3/15/2017,56
3/16/2017,48
3/17/2017,55
3/18/2017,71
3/19/2017,9
3/20/2017,55
3/21/2017,68
3/22/2017,69
3/23/2017,55
3/24/2017,47
3/25/2017,56
3/26/2017,21
3/27/2017,54
3/28/2017,50
3/29/2017,40
3/30/2017,51
3/31/2017,46
04/01/2017,57
04/02/2017,17
04/03/2017,62
04/04/2017,61
04/05/2017,61
04/06/2017,48
04/07/2017,60
04/08/2017,56
04/09/2017,13
04/10/2017,43
04/11/2017,37
04/12/2017,26
4/13/2017,3
4/14/2017,1
4/15/2017,11
4/16/2017,8
4/17/2017,55
4/18/2017,73
4/19/2017,56
4/20/2017,54
4/21/2017,47
4/22/2017,48
4/23/2017,17
4/24/2017,68
4/25/2017,68
4/26/2017,55
4/27/2017,50
4/28/2017,28
4/29/2017,43
4/30/2017,19
05/01/2017,15
05/02/2017,51
05/03/2017,56
05/04/2017,47
05/05/2017,55
05/06/2017,62
05/07/2017,12
05/08/2017,49
05/09/2017,44
05/10/2017,39
05/11/2017,58
05/12/2017,52
5/13/2017,54
5/14/2017,18
5/15/2017,61
5/16/2017,47
5/17/2017,58
5/18/2017,45
5/19/2017,34
5/20/2017,48
5/21/2017,18
5/22/2017,67
5/23/2017,54
5/24/2017,45
5/25/2017,44
5/26/2017,34
5/27/2017,41
5/28/2017,17
5/29/2017,59
5/30/2017,72
5/31/2017,51
06/01/2017,59
06/02/2017,55
06/03/2017,61
06/04/2017,15
06/05/2017,61
06/06/2017,48
06/07/2017,41
06/08/2017,44
06/09/2017,56
06/10/2017,42
06/11/2017,15
06/12/2017,21
6/13/2017,40
6/14/2017,57
6/15/2017,47
6/16/2017,54
6/17/2017,53
6/18/2017,18
6/19/2017,80
6/20/2017,57
6/21/2017,70
6/22/2017,59
6/23/2017,45
6/24/2017,45
6/25/2017,15
6/26/2017,26
6/27/2017,44
6/28/2017,50
6/29/2017,40
6/30/2017,38
07/01/2017,45
07/02/2017,14
07/03/2017,61
07/04/2017,65
07/05/2017,68
07/06/2017,45
07/07/2017,58
07/08/2017,43
07/09/2017,18
07/10/2017,47
07/11/2017,78
07/12/2017,45
7/13/2017,38
7/14/2017,52
7/15/2017,40
7/16/2017,14
7/17/2017,50
7/18/2017,54
7/19/2017,55
7/20/2017,40
7/21/2017,57
7/22/2017,42
7/23/2017,13
7/24/2017,57
7/25/2017,47
7/26/2017,33
7/27/2017,35
7/28/2017,42
7/29/2017,44
7/30/2017,15
7/31/2017,41
08/01/2017,42
08/02/2017,31
08/03/2017,30
08/04/2017,36
08/05/2017,28
08/06/2017,12
08/07/2017,29
08/08/2017,47
08/09/2017,40
08/10/2017,28
08/11/2017,37
08/12/2017,36
8/13/2017,19
8/14/2017,35
8/15/2017,33
8/16/2017,48
8/17/2017,39
8/18/2017,37
8/19/2017,17
8/20/2017,10
8/21/2017,27
8/22/2017,44
8/23/2017,38
8/24/2017,33
8/25/2017,37
8/26/2017,46
8/27/2017,19
8/28/2017,27
8/29/2017,56
8/30/2017,45
8/31/2017,53
09/01/2017,36
09/02/2017,41
09/03/2017,14
09/04/2017,54
09/05/2017,34
09/06/2017,49
09/07/2017,41
09/08/2017,31
09/09/2017,42
09/10/2017,14
09/11/2017,42
09/12/2017,23
9/13/2017,26
9/14/2017,27
9/15/2017,39
9/16/2017,31
9/17/2017,11
9/18/2017,49
9/19/2017,37
9/20/2017,30
9/21/2017,31
9/22/2017,37
9/23/2017,36
9/24/2017,15
9/25/2017,46
9/26/2017,46
9/27/2017,38
9/28/2017,29
9/29/2017,30
9/30/2017,40
10/01/2017,13
10/02/2017,32
10/03/2017,32
10/04/2017,51
10/05/2017,31
10/06/2017,29
10/07/2017,35
10/08/2017,15
10/09/2017,37
10/10/2017,37
10/11/2017,46
10/12/2017,28
10/13/2017,36
10/14/2017,55
10/15/2017,14
10/16/2017,53
10/17/2017,56
10/18/2017,60
10/19/2017,48
10/20/2017,36
10/21/2017,35
10/22/2017,19
10/23/2017,27
10/24/2017,43
10/25/2017,37
10/26/2017,33
10/27/2017,46
10/28/2017,25
10/29/2017,23
10/30/2017,35
10/31/2017,24
11/01/2017,8
11/02/2017,26
11/03/2017,28
11/04/2017,41
11/05/2017,10
11/06/2017,25
11/07/2017,43
11/08/2017,33
11/09/2017,41
11/10/2017,39
11/11/2017,44
11/12/2017,14
11/13/2017,39
11/14/2017,45
11/15/2017,33
11/16/2017,32
11/17/2017,37
11/18/2017,32
11/19/2017,18
11/20/2017,51
11/21/2017,42
11/22/2017,42
11/23/2017,53
11/24/2017,29
11/25/2017,52
11/26/2017,20
11/27/2017,38
11/28/2017,44
11/29/2017,27
11/30/2017,21
12/01/2017,48
12/02/2017,40
12/03/2017,11
12/04/2017,48
12/05/2017,39
12/06/2017,32
12/07/2017,36
12/08/2017,43
12/09/2017,34
12/10/2017,14
12/11/2017,34
12/12/2017,40
12/13/2017,49
12/14/2017,35
12/15/2017,30
12/16/2017,41
12/17/2017,11
12/18/2017,31
12/19/2017,28
12/20/2017,52
12/21/2017,35
12/22/2017,23
12/23/2017,16
12/24/2017,4
12/25/2017,1
12/26/2017,12
12/27/2017,24
12/28/2017,15
12/29/2017,17
12/30/2017,11
12/31/2017,3
